pe_1.vcd
$date
	Wed Jul 22 11:02:07 2026
$end
$version
	Icarus Verilog
$end
$timescale
	1ps
$end
$scope module processing_element_tb $end
$var wire 8 ! weight_out [7:0] $end
$var wire 1 " valid_out $end
$var wire 16 # partial_sum [15:0] $end
$var wire 8 $ activation_out [7:0] $end
$var parameter 32 % WIDTH $end
$var reg 8 & activation_in [7:0] $end
$var reg 1 ' clk $end
$var reg 1 ( en $end
$var reg 1 ) rst $end
$var reg 1 * valid_in $end
$var reg 8 + weight_in [7:0] $end
$scope module dut $end
$var wire 8 , activation_in [7:0] $end
$var wire 1 ' clk $end
$var wire 1 ( en $end
$var wire 1 ) rst $end
$var wire 1 * valid_in $end
$var wire 8 - weight_in [7:0] $end
$var wire 16 . partial_sum [15:0] $end
$var parameter 32 / WIDTH $end
$var reg 8 0 activation_out [7:0] $end
$var reg 8 1 activation_reg [7:0] $end
$var reg 1 " valid_out $end
$var reg 8 2 weight_out [7:0] $end
$var reg 8 3 weight_reg [7:0] $end
$scope module u_mac $end
$var wire 8 4 a [7:0] $end
$var wire 8 5 b [7:0] $end
$var wire 1 ' clk $end
$var wire 1 ( en $end
$var wire 1 ) rst $end
$var wire 16 6 sum [15:0] $end
$var wire 16 7 product [15:0] $end
$var parameter 32 8 WIDTH $end
$scope module u_accumulator $end
$var wire 1 ' clk $end
$var wire 1 ( en $end
$var wire 1 ) rst $end
$var wire 16 9 data_in [15:0] $end
$var parameter 32 : WIDTH $end
$var reg 16 ; sum [15:0] $end
$upscope $end
$scope module u_multiplier $end
$var wire 8 < a [7:0] $end
$var wire 8 = b [7:0] $end
$var wire 16 > product [15:0] $end
$var parameter 32 ? WIDTH $end
$upscope $end
$upscope $end
$upscope $end
$upscope $end
$enddefinitions $end
$comment Show the parameter values. $end
$dumpall
b1000 ?
b1000 :
b1000 8
b1000 /
b1000 %
$end
#0
$dumpvars
bx >
bx =
bx <
bx ;
bx 9
bx 7
bx 6
bx 5
bx 4
bx 3
bx 2
bx 1
bx 0
bx .
b0 -
b0 ,
b0 +
0*
1)
0(
0'
b0 &
bx $
bx #
x"
bx !
$end
#5000
b0 #
b0 .
b0 6
b0 ;
0"
b0 !
b0 2
b0 $
b0 0
b0 7
b0 9
b0 >
b0 3
b0 5
b0 =
b0 1
b0 4
b0 <
1'
#10000
0'
#15000
1'
#20000
0'
b11 +
b11 -
b10 &
b10 ,
1*
1(
0)
#25000
1"
b11 !
b11 2
b10 $
b10 0
b110 7
b110 9
b110 >
b11 3
b11 5
b11 =
b10 1
b10 4
b10 <
1'
#30000
0'
b101 +
b101 -
b100 &
b100 ,
#35000
b101 !
b101 2
b100 $
b100 0
b101 3
b101 5
b101 =
b10100 7
b10100 9
b10100 >
b100 1
b100 4
b100 <
b110 #
b110 .
b110 6
b110 ;
1'
#40000
0'
b111 +
b111 -
b110 &
b110 ,
#45000
b11010 #
b11010 .
b11010 6
b11010 ;
b111 !
b111 2
b110 $
b110 0
b111 3
b111 5
b111 =
b101010 7
b101010 9
b101010 >
b110 1
b110 4
b110 <
1'
#50000
0'
b1111 +
b1111 -
b1111 &
b1111 ,
0(
#55000
1'
#60000
0'
#65000
1'
#70000
0'
b1001 +
b1001 -
b1000 &
b1000 ,
1(
#75000
b1001 !
b1001 2
b1000 $
b1000 0
b1001 3
b1001 5
b1001 =
b1001000 7
b1001000 9
b1001000 >
b1000 1
b1000 4
b1000 <
b1000100 #
b1000100 .
b1000100 6
b1000100 ;
1'
#80000
0'
b1010 +
b1010 -
b1010 &
b1010 ,
0*
#85000
b10001100 #
b10001100 .
b10001100 6
b10001100 ;
0"
b1010 !
b1010 2
b1010 $
b1010 0
b1010 3
b1010 5
b1010 =
b1100100 7
b1100100 9
b1100100 >
b1010 1
b1010 4
b1010 <
1'
#90000
0'
#95000
b11110000 #
b11110000 .
b11110000 6
b11110000 ;
1'
