verification/waveform/mac.vcd
$date
	Wed Jul 15 17:19:51 2026
$end
$version
	Icarus Verilog
$end
$timescale
	1ps
$end
$scope module mac_tb $end
$var wire 16 ! sum [15:0] $end
$var parameter 32 " WIDTH $end
$var reg 8 # a [7:0] $end
$var reg 8 $ b [7:0] $end
$var reg 1 % clk $end
$var reg 1 & en $end
$var reg 1 ' rst $end
$scope module dut $end
$var wire 8 ( a [7:0] $end
$var wire 8 ) b [7:0] $end
$var wire 1 % clk $end
$var wire 1 & en $end
$var wire 1 ' rst $end
$var wire 16 * sum [15:0] $end
$var wire 16 + product [15:0] $end
$var parameter 32 , WIDTH $end
$scope module u_accumulator $end
$var wire 1 % clk $end
$var wire 1 & en $end
$var wire 1 ' rst $end
$var wire 16 - data_in [15:0] $end
$var parameter 32 . WIDTH $end
$var reg 16 / sum [15:0] $end
$upscope $end
$scope module u_multiplier $end
$var wire 8 0 a [7:0] $end
$var wire 8 1 b [7:0] $end
$var wire 16 2 product [15:0] $end
$var parameter 32 3 WIDTH $end
$upscope $end
$upscope $end
$upscope $end
$enddefinitions $end
$comment Show the parameter values. $end
$dumpall
b1000 3
b1000 .
b1000 ,
b1000 "
$end
#0
$dumpvars
b0 2
b0 1
b0 0
bx /
b0 -
b0 +
bx *
b0 )
b0 (
1'
0&
0%
b0 $
b0 #
bx !
$end
#5000
b0 !
b0 *
b0 /
1%
#10000
0%
b110 +
b110 -
b110 2
b11 $
b11 )
b11 1
b10 #
b10 (
b10 0
1&
0'
#15000
b110 !
b110 *
b110 /
1%
#20000
0%
b100 $
b100 )
b100 1
b10100 +
b10100 -
b10100 2
b101 #
b101 (
b101 0
#25000
b11010 !
b11010 *
b11010 /
1%
#30000
0%
b1000 $
b1000 )
b1000 1
b1000 +
b1000 -
b1000 2
b1 #
b1 (
b1 0
#35000
b100010 !
b100010 *
b100010 /
1%
#40000
0%
0&
#45000
1%
#50000
0%
1'
#55000
b0 !
b0 *
b0 /
1%
