verification/waveform/pe.vcd
$date
	Wed Jul 15 17:27:47 2026
$end
$version
	Icarus Verilog
$end
$timescale
	1ps
$end
$scope module processing_element_tb $end
$var wire 8 ! weight_out [7:0] $end
$var wire 16 " partial_sum [15:0] $end
$var wire 8 # activation_out [7:0] $end
$var parameter 32 $ WIDTH $end
$var reg 8 % activation_in [7:0] $end
$var reg 1 & clk $end
$var reg 1 ' en $end
$var reg 1 ( rst $end
$var reg 8 ) weight_in [7:0] $end
$scope module dut $end
$var wire 8 * activation_in [7:0] $end
$var wire 1 & clk $end
$var wire 1 ' en $end
$var wire 1 ( rst $end
$var wire 8 + weight_in [7:0] $end
$var wire 16 , partial_sum [15:0] $end
$var parameter 32 - WIDTH $end
$var reg 8 . activation_out [7:0] $end
$var reg 8 / weight_out [7:0] $end
$scope module u_mac $end
$var wire 8 0 a [7:0] $end
$var wire 8 1 b [7:0] $end
$var wire 1 & clk $end
$var wire 1 ' en $end
$var wire 1 ( rst $end
$var wire 16 2 sum [15:0] $end
$var wire 16 3 product [15:0] $end
$var parameter 32 4 WIDTH $end
$scope module u_accumulator $end
$var wire 1 & clk $end
$var wire 1 ' en $end
$var wire 1 ( rst $end
$var wire 16 5 data_in [15:0] $end
$var parameter 32 6 WIDTH $end
$var reg 16 7 sum [15:0] $end
$upscope $end
$scope module u_multiplier $end
$var wire 8 8 a [7:0] $end
$var wire 8 9 b [7:0] $end
$var wire 16 : product [15:0] $end
$var parameter 32 ; WIDTH $end
$upscope $end
$upscope $end
$upscope $end
$upscope $end
$enddefinitions $end
$comment Show the parameter values. $end
$dumpall
b1000 ;
b1000 6
b1000 4
b1000 -
b1000 $
$end
#0
$dumpvars
b0 :
b0 9
b0 8
bx 7
b0 5
b0 3
bx 2
b0 1
b0 0
bx /
bx .
bx ,
b0 +
b0 *
b0 )
1(
0'
0&
b0 %
bx #
bx "
bx !
$end
#5000
b0 "
b0 ,
b0 2
b0 7
b0 !
b0 /
b0 #
b0 .
1&
#10000
0&
b110 3
b110 5
b110 :
b11 )
b11 +
b11 1
b11 9
b10 %
b10 *
b10 0
b10 8
1'
0(
#15000
b11 !
b11 /
b10 #
b10 .
b110 "
b110 ,
b110 2
b110 7
1&
#20000
0&
b100 )
b100 +
b100 1
b100 9
b10100 3
b10100 5
b10100 :
b101 %
b101 *
b101 0
b101 8
#25000
b11010 "
b11010 ,
b11010 2
b11010 7
b100 !
b100 /
b101 #
b101 .
1&
#30000
0&
b1000 )
b1000 +
b1000 1
b1000 9
b1000 3
b1000 5
b1000 :
b1 %
b1 *
b1 0
b1 8
#35000
b1000 !
b1000 /
b1 #
b1 .
b100010 "
b100010 ,
b100010 2
b100010 7
1&
